<?xml version="1.0" encoding="UTF-8"?>
<svg width="162px" height="54px" viewBox="0 0 162 54" version="1.1" xmlns="http://www.w3.org/2000/svg" xmlns:xlink="http://www.w3.org/1999/xlink">
    <!-- Generator: sketchtool 55.2 (78181) - https://sketchapp.com -->
    <title>57C82C6F-6F2E-4D96-9ABC-39C8C502AAFD</title>
    <desc>Created with sketchtool.</desc>
    <defs>
        <linearGradient x1="0%" y1="53.207452%" x2="95.6519769%" y2="50%" id="linearGradient-1">
            <stop stop-color="#1A9AEF" offset="0%"></stop>
            <stop stop-color="#3366FF" offset="100%"></stop>
        </linearGradient>
    </defs>
    <g id="UI-Kit" stroke="none" stroke-width="1" fill="none" fill-rule="evenodd">
        <g transform="translate(-942.000000, -1285.000000)" id="Group-Copy-5">
            <g transform="translate(922.000000, 1275.000000)">
                <rect id="Rectangle" x="0" y="0" width="200" height="80"></rect>
                <g id="Group-5" transform="translate(20.000000, 10.000000)">
                    <path d="M15.2562472,53.4484535 C12.2074071,53.4484535 9.53971207,52.9078243 7.25308199,51.8265496 C4.96645192,50.7452749 3.19389705,49.212015 1.93536422,47.2267237 C0.676831384,45.2414325 0.0475744067,42.9371112 0.0475744067,40.3136906 C0.0475744067,37.1584956 0.809772999,34.3224078 2.33419305,31.8053422 C3.8586131,29.2882765 5.98567894,27.3030151 8.71545438,25.8494983 C11.4452298,24.3959815 14.5117497,23.669234 17.9151061,23.669234 C21.176656,23.669234 23.9950182,24.3516676 26.3702774,25.7165553 C28.7455365,27.081443 30.4826403,29.0046651 31.5816408,31.4862791 L22.966938,35.5809218 C21.9033891,33.0284045 20.0422065,31.752165 17.3833344,31.752165 C15.3271399,31.752165 13.63435,32.496638 12.3049139,33.9856065 C10.9754778,35.4745749 10.3107697,37.3889341 10.3107697,39.7287417 C10.3107697,41.4304199 10.7982223,42.7864243 11.7731421,43.7967958 C12.7480619,44.8071672 14.1395175,45.3123453 15.9475506,45.3123453 C17.2947125,45.3123453 18.4823242,45.011011 19.5104215,44.4083333 C20.5385187,43.8056556 21.4247961,42.848476 22.1692803,41.5367657 L29.5609081,46.0036486 C28.1782945,48.3434562 26.2373469,50.1691877 23.7380071,51.4808979 C21.2386672,52.7926082 18.4114422,53.4484535 15.2562472,53.4484535 Z M54.7930366,23.669234 C57.9127799,23.669234 60.4298078,24.5200603 62.3441958,26.2217385 C64.2585838,27.9234167 65.2157634,30.3695424 65.2157634,33.560189 C65.2157634,34.7300928 65.0916846,35.8822535 64.8435232,37.0167056 L61.6528925,52.9698589 L51.5492287,52.9698589 L54.5271507,37.9738948 C54.6689572,37.3712171 54.7398594,36.7330974 54.7398594,36.0595164 C54.7398594,33.5069991 53.4104432,32.2307596 50.7515711,32.2307596 C48.9789896,32.2307596 47.5254946,32.7713888 46.3910425,33.8526635 C45.2565904,34.9339382 44.4589407,36.5558259 43.9980695,38.7183753 L41.1265019,52.9698589 L31.0228381,52.9698589 L38.8930604,13.512393 L48.9967242,13.512393 L46.3910425,26.5408016 C48.8372049,24.6264136 51.6378416,23.669234 54.7930366,23.669234 Z M84.9706426,53.4484535 C81.9218025,53.4484535 79.2629702,52.9078243 76.994066,51.8265496 C74.7251617,50.7452749 72.9703324,49.212015 71.7295254,47.2267237 C70.4887183,45.2414325 69.8683241,42.9371112 69.8683241,40.3136906 C69.8683241,37.1584956 70.6305227,34.3224078 72.1549428,31.8053422 C73.6793628,29.2882765 75.7887031,27.3030151 78.4830269,25.8494983 C81.1773507,24.3959815 84.2084196,23.669234 87.5763243,23.669234 C90.6251644,23.669234 93.2839967,24.2098632 95.552901,25.2911379 C97.8218053,26.3724126 99.5766346,27.8968098 100.817442,29.8643752 C102.058249,31.8319406 102.678643,34.1273992 102.678643,36.7508197 C102.678643,39.9060147 101.916444,42.7509653 100.392024,45.2857567 C98.8676041,47.8205482 96.7671266,49.8146724 94.0905286,51.2681892 C91.4139306,52.721706 88.373999,53.4484535 84.9706426,53.4484535 Z M85.5555916,45.3123453 C87.5763344,45.3123453 89.2248105,44.5678723 90.5010691,43.0789039 C91.7773278,41.5899354 92.4154475,39.6578506 92.4154475,37.2825915 C92.4154475,35.5809133 91.9368577,34.2337716 90.9796637,33.241126 C90.0224697,32.2484804 88.6930536,31.752165 86.9913754,31.752165 C84.9706325,31.752165 83.3221565,32.496638 82.0458978,33.9856065 C80.7696392,35.4745749 80.1315194,37.4243852 80.1315194,39.835096 C80.1315194,41.5367742 80.6101093,42.8750531 81.5673032,43.8499729 C82.5244972,44.8248927 83.8539134,45.3123453 85.5555916,45.3123453 Z" id="cho" fill="url(#linearGradient-1)" fill-rule="nonzero"></path>
                    <g id="Group-28" transform="translate(109.352329, 0.136711)">
                        <path d="M17.8109142,22.3975687 L17.8109142,22.3975687 C26.9682503,22.3975687 33.8377882,30.772237 32.0476046,39.7526435 L31.9333376,40.3239787 C30.5805632,47.1136525 24.6202469,52.0025617 17.6966472,52.0025617 L2.27373675e-13,52.0025617 L3.57422389,34.0761517 C4.92822689,27.2864779 10.8873145,22.3975687 17.8109142,22.3975687" id="Fill-2" fill="#1A9AEF"></path>
                        <path d="M37.6233447,22.3975687 L37.6233447,22.3975687 C46.7806808,22.3975687 53.6502187,30.772237 51.8600351,39.7526435 L51.745768,40.3239787 C50.3929937,47.1136525 44.4326774,52.0025617 37.5090777,52.0025617 L19.8136592,52.0025617 L23.3866544,34.0761517 C24.7406574,27.2864779 30.699745,22.3975687 37.6233447,22.3975687" id="Fill-3" fill="#3366FF"></path>
                        <path d="M19.2206992,3.90798505e-14 L19.2206992,3.90798505e-14 C24.8787608,3.90798505e-14 29.1250714,5.17519114 28.0180327,10.725129 L27.9492267,11.0789883 C27.1124971,15.2749231 23.4289209,18.296242 19.1494359,18.296242 C13.4913744,18.296242 9.24506368,13.1198222 10.3521024,7.56988429 L10.4221371,7.21725374 C11.2588667,3.02131886 14.9424429,3.90798505e-14 19.2206992,3.90798505e-14" id="Fill-4" fill="#1A9AEF"></path>
                    </g>
                </g>
            </g>
        </g>
    </g>
</svg>