<?xml version="1.0" encoding="UTF-8"?>
<svg width="20px" height="18px" viewBox="0 0 20 18" version="1.1" xmlns="http://www.w3.org/2000/svg" xmlns:xlink="http://www.w3.org/1999/xlink">
    <!-- Generator: sketchtool 55.2 (78181) - https://sketchapp.com -->
    <title>45DC9E87-6AD9-41E9-A50D-14B91032D4B0-404-0000034F6B609199</title>
    <desc>Created with sketchtool.</desc>
    <g id="Home" stroke="none" stroke-width="1" fill="none" fill-rule="evenodd">
        <g transform="translate(-1008.000000, -642.000000)" fill="#FD6E24" id="Card/default-Copy">
            <g transform="translate(728.000000, 608.000000)">
                <g id="Group-2" transform="translate(272.000000, 24.000000)">
                    <g id="ic/Love-active24" transform="translate(6.000000, 6.000000)">
                        <path d="M20.4578131,5.54712693 C19.4708558,4.55654323 18.1319762,4 16.73588,4 C15.3397838,4 14.0009043,4.55654323 13.0139469,5.54712693 L11.9997441,6.56457852 L10.9855413,5.54712693 C8.92997437,3.4849756 5.59724201,3.48497563 3.54167516,5.54712698 C1.4861083,7.60927834 1.48610828,10.9526863 3.5416751,13.0148377 L4.55587795,14.0322893 L11.9997441,21.5 L19.4436102,14.0322893 L20.4578131,13.0148377 C21.4452338,12.0247189 22,10.6815505 22,9.2809823 C22,7.88041408 21.4452338,6.53724574 20.4578131,5.54712693 Z" id="Shape"></path>
                    </g>
                </g>
            </g>
        </g>
    </g>
</svg>