<?xml version="1.0" encoding="UTF-8"?>
<svg width="115px" height="47px" viewBox="0 0 115 47" version="1.1" xmlns="http://www.w3.org/2000/svg" xmlns:xlink="http://www.w3.org/1999/xlink">
    <!-- Generator: sketchtool 55.2 (78181) - https://sketchapp.com -->
    <title>E2111A36-F7B8-4E11-8FFD-9945283D4F44</title>
    <desc>Created with sketchtool.</desc>
    <defs>
        <path d="M6.27111111,2.21511111 C4.29511111,3.26666667 2.75555556,4.70311111 1.65333333,6.52355556 L1.65333333,6.52355556 C0.551111111,8.34577778 0,10.3973333 0,12.6791111 L0,12.6791111 C0,14.5777778 0.455111111,16.2444444 1.36533333,17.6808889 L1.36533333,17.6808889 C2.27555556,19.1173333 3.55822222,20.2266667 5.21244444,21.0088889 L5.21244444,21.0088889 C6.86755556,21.7911111 8.79644444,22.1822222 11.0026667,22.1822222 L11.0026667,22.1822222 C13.2844444,22.1822222 15.3315556,21.7075556 17.1395556,20.7582222 L17.1395556,20.7582222 C18.9475556,19.8097778 20.3511111,18.4888889 21.352,16.7955556 L21.352,16.7955556 L16.0035556,13.5644444 C15.4657778,14.5137778 14.824,15.2053333 14.08,15.6417778 L14.08,15.6417778 C13.336,16.0782222 12.4764444,16.296 11.5022222,16.296 L11.5022222,16.296 C10.1946667,16.296 9.18844444,15.9297778 8.48266667,15.1991111 L8.48266667,15.1991111 C7.77688889,14.4684444 7.42488889,13.4871111 7.42488889,12.256 L7.42488889,12.256 C7.42488889,10.5626667 7.90577778,9.17866667 8.86755556,8.10133333 L8.86755556,8.10133333 C9.82844444,7.02488889 11.0533333,6.48533333 12.5413333,6.48533333 L12.5413333,6.48533333 C14.4648889,6.48533333 15.8115556,7.40888889 16.5804444,9.256 L16.5804444,9.256 L22.8133333,6.29244444 C22.0177778,4.49866667 20.7617778,3.10666667 19.0426667,2.11911111 L19.0426667,2.11911111 C17.3244444,1.13155556 15.2853333,0.638222222 12.9262222,0.638222222 L12.9262222,0.638222222 C10.464,0.638222222 8.24444444,1.16355556 6.27111111,2.21511111" id="path-1"></path>
        <linearGradient x1="6.65384259%" y1="33.3604754%" x2="306.340711%" y2="143.420808%" id="linearGradient-3">
            <stop stop-color="#FDAC33" offset="0%"></stop>
            <stop stop-color="#FD6E23" offset="100%"></stop>
        </linearGradient>
        <path d="M6.01866667,0.400888889 L0.325333333,28.9466667 L7.63466667,28.9466667 L9.712,18.6364444 C10.0453333,17.0728889 10.6222222,15.8986667 11.4426667,15.1164444 L11.4426667,15.1164444 C12.264,14.3342222 13.3155556,13.9431111 14.5973333,13.9431111 L14.5973333,13.9431111 C16.5208889,13.9431111 17.4826667,14.8657778 17.4826667,16.7128889 L17.4826667,16.7128889 C17.4826667,17.2008889 17.4311111,17.6622222 17.3288889,18.0968889 L17.3288889,18.0968889 L15.1751111,28.9466667 L22.4844444,28.9466667 L24.792,17.4053333 C24.9715556,16.5848889 25.0622222,15.7511111 25.0622222,14.9048889 L25.0622222,14.9048889 C25.0622222,12.5964444 24.3688889,10.8266667 22.984,9.59555556 L22.984,9.59555556 C21.5991111,8.36444444 19.7777778,7.74933333 17.5217778,7.74933333 L17.5217778,7.74933333 C15.2382222,7.74933333 13.2133333,8.44177778 11.4426667,9.82577778 L11.4426667,9.82577778 L13.328,0.400888889 L6.01866667,0.400888889 Z" id="path-4"></path>
        <linearGradient x1="-38.2405741%" y1="18.3939354%" x2="169.307055%" y2="111.534763%" id="linearGradient-6">
            <stop stop-color="#FDAC33" offset="0%"></stop>
            <stop stop-color="#FD6E23" offset="100%"></stop>
        </linearGradient>
        <path d="M21.2088889,1.66222222 C21.7217778,2.25244444 21.9786667,2.99644444 21.9786667,3.89422222 L21.9786667,3.89422222 C21.9786667,4.58666667 21.7146667,5.16355556 21.1893333,5.62488889 L21.1893333,5.62488889 C20.6631111,6.08711111 20.1048889,6.31822222 19.5164444,6.31822222 L19.5164444,6.31822222 C19.0026667,6.31822222 18.2071111,6.26666667 17.1306667,6.16355556 L17.1306667,6.16355556 C15.4622222,6.03555556 14.232,5.97155556 13.4373333,5.97155556 L13.4373333,5.97155556 C10.9751111,5.97155556 8.76977778,6.49688889 6.82044444,7.54844444 L6.82044444,7.54844444 C4.87022222,8.6 3.352,10.0364444 2.26133333,11.8568889 L2.26133333,11.8568889 C1.17155556,13.6791111 0.627555556,15.7306667 0.627555556,18.0124444 L0.627555556,18.0124444 C0.627555556,19.9111111 1.07466667,21.5777778 1.97333333,23.0142222 L1.97333333,23.0142222 C2.87022222,24.4506667 4.14044444,25.56 5.78133333,26.3422222 L5.78133333,26.3422222 C7.42311111,27.1244444 9.33333333,27.5155556 11.5146667,27.5155556 L11.5146667,27.5155556 C13.9493333,27.5155556 16.1431111,26.9902222 18.0924444,25.9377778 L18.0924444,25.9377778 C20.0408889,24.8862222 21.5608889,23.4435556 22.6515556,21.6097778 L22.6515556,21.6097778 C23.7413333,19.776 24.2862222,17.7182222 24.2862222,15.4355556 L24.2862222,15.4355556 C24.2862222,13.4346667 23.7857778,11.7164444 22.7857778,10.2791111 L22.7857778,10.2791111 C24.0168889,9.79288889 24.9848889,9.02933333 25.6906667,7.99111111 L25.6906667,7.99111111 C26.3955556,6.952 26.7484444,5.68888889 26.7484444,4.20088889 L26.7484444,4.20088889 C26.7484444,2.63822222 26.2995556,1.27822222 25.4026667,0.123555556 L25.4026667,0.123555556 L21.2088889,1.66222222 Z M9.09066667,20.5715556 C8.39733333,19.8657778 8.05155556,18.8977778 8.05155556,17.6666667 L8.05155556,17.6666667 C8.05155556,15.9226667 8.51288889,14.512 9.43644444,13.4346667 L9.43644444,13.4346667 C10.3591111,12.3582222 11.552,11.8186667 13.0142222,11.8186667 L13.0142222,11.8186667 C14.2444444,11.8186667 15.2062222,12.1786667 15.8995556,12.896 L15.8995556,12.896 C16.592,13.6151111 16.9386667,14.5893333 16.9386667,15.8195556 L16.9386667,15.8195556 C16.9386667,17.5386667 16.4764444,18.936 15.5528889,20.0133333 L15.5528889,20.0133333 C14.6302222,21.0897778 13.4373333,21.6293333 11.976,21.6293333 L11.976,21.6293333 C10.744,21.6293333 9.78222222,21.2773333 9.09066667,20.5715556 L9.09066667,20.5715556 Z M7.12888889,30.496 C6.46044444,31.1244444 6.128,31.9004444 6.128,32.824 L6.128,32.824 C6.128,33.6186667 6.39022222,34.272 6.91644444,34.7857778 L6.91644444,34.7857778 C7.44177778,35.2986667 8.11555556,35.5555556 8.936,35.5555556 L8.936,35.5555556 C9.91022222,35.5555556 10.712,35.2542222 11.3404444,34.6515556 L11.3404444,34.6515556 C11.9688889,34.048 12.2835556,33.2337778 12.2835556,32.208 L12.2835556,32.208 C12.2835556,31.44 12.0142222,30.8044444 11.4764444,30.304 L11.4764444,30.304 C10.9368889,29.8044444 10.2693333,29.5537778 9.47555556,29.5537778 L9.47555556,29.5537778 C8.57688889,29.5537778 7.79466667,29.8675556 7.12888889,30.496 L7.12888889,30.496 Z" id="path-7"></path>
        <linearGradient x1="-61.4756195%" y1="-12.2817157%" x2="80.774643%" y2="62.7571576%" id="linearGradient-9">
            <stop stop-color="#FDAC33" offset="0%"></stop>
            <stop stop-color="#FD6E23" offset="100%"></stop>
        </linearGradient>
    </defs>
    <g id="UI-Kit" stroke="none" stroke-width="1" fill="none" fill-rule="evenodd">
        <g transform="translate(-496.000000, -1287.000000)" id="Logo/Large-orange">
            <g transform="translate(496.000000, 1287.000000)">
                <g id="Group-17">
                    <g id="Group-3" transform="translate(0.000000, 16.599200)">
                        <mask id="mask-2" fill="white">
                            <use xlink:href="#path-1"></use>
                        </mask>
                        <g id="Clip-2"></g>
                        <path d="M6.27111111,2.21511111 C4.29511111,3.26666667 2.75555556,4.70311111 1.65333333,6.52355556 L1.65333333,6.52355556 C0.551111111,8.34577778 0,10.3973333 0,12.6791111 L0,12.6791111 C0,14.5777778 0.455111111,16.2444444 1.36533333,17.6808889 L1.36533333,17.6808889 C2.27555556,19.1173333 3.55822222,20.2266667 5.21244444,21.0088889 L5.21244444,21.0088889 C6.86755556,21.7911111 8.79644444,22.1822222 11.0026667,22.1822222 L11.0026667,22.1822222 C13.2844444,22.1822222 15.3315556,21.7075556 17.1395556,20.7582222 L17.1395556,20.7582222 C18.9475556,19.8097778 20.3511111,18.4888889 21.352,16.7955556 L21.352,16.7955556 L16.0035556,13.5644444 C15.4657778,14.5137778 14.824,15.2053333 14.08,15.6417778 L14.08,15.6417778 C13.336,16.0782222 12.4764444,16.296 11.5022222,16.296 L11.5022222,16.296 C10.1946667,16.296 9.18844444,15.9297778 8.48266667,15.1991111 L8.48266667,15.1991111 C7.77688889,14.4684444 7.42488889,13.4871111 7.42488889,12.256 L7.42488889,12.256 C7.42488889,10.5626667 7.90577778,9.17866667 8.86755556,8.10133333 L8.86755556,8.10133333 C9.82844444,7.02488889 11.0533333,6.48533333 12.5413333,6.48533333 L12.5413333,6.48533333 C14.4648889,6.48533333 15.8115556,7.40888889 16.5804444,9.256 L16.5804444,9.256 L22.8133333,6.29244444 C22.0177778,4.49866667 20.7617778,3.10666667 19.0426667,2.11911111 L19.0426667,2.11911111 C17.3244444,1.13155556 15.2853333,0.638222222 12.9262222,0.638222222 L12.9262222,0.638222222 C10.464,0.638222222 8.24444444,1.16355556 6.27111111,2.21511111" id="Fill-1" fill="url(#linearGradient-3)" mask="url(#mask-2)"></path>
                    </g>
                    <g id="Group-6" transform="translate(21.333333, 9.488089)">
                        <mask id="mask-5" fill="white">
                            <use xlink:href="#path-4"></use>
                        </mask>
                        <g id="Clip-5"></g>
                        <path d="M6.01866667,0.400888889 L0.325333333,28.9466667 L7.63466667,28.9466667 L9.712,18.6364444 C10.0453333,17.0728889 10.6222222,15.8986667 11.4426667,15.1164444 L11.4426667,15.1164444 C12.264,14.3342222 13.3155556,13.9431111 14.5973333,13.9431111 L14.5973333,13.9431111 C16.5208889,13.9431111 17.4826667,14.8657778 17.4826667,16.7128889 L17.4826667,16.7128889 C17.4826667,17.2008889 17.4311111,17.6622222 17.3288889,18.0968889 L17.3288889,18.0968889 L15.1751111,28.9466667 L22.4844444,28.9466667 L24.792,17.4053333 C24.9715556,16.5848889 25.0622222,15.7511111 25.0622222,14.9048889 L25.0622222,14.9048889 C25.0622222,12.5964444 24.3688889,10.8266667 22.984,9.59555556 L22.984,9.59555556 C21.5991111,8.36444444 19.7777778,7.74933333 17.5217778,7.74933333 L17.5217778,7.74933333 C15.2382222,7.74933333 13.2133333,8.44177778 11.4426667,9.82577778 L11.4426667,9.82577778 L13.328,0.400888889 L6.01866667,0.400888889 Z" id="Fill-4" fill="url(#linearGradient-6)" mask="url(#mask-5)"></path>
                    </g>
                    <g id="Group-9" transform="translate(48.000000, 11.265867)">
                        <mask id="mask-8" fill="white">
                            <use xlink:href="#path-7"></use>
                        </mask>
                        <g id="Clip-8"></g>
                        <path d="M21.2088889,1.66222222 C21.7217778,2.25244444 21.9786667,2.99644444 21.9786667,3.89422222 L21.9786667,3.89422222 C21.9786667,4.58666667 21.7146667,5.16355556 21.1893333,5.62488889 L21.1893333,5.62488889 C20.6631111,6.08711111 20.1048889,6.31822222 19.5164444,6.31822222 L19.5164444,6.31822222 C19.0026667,6.31822222 18.2071111,6.26666667 17.1306667,6.16355556 L17.1306667,6.16355556 C15.4622222,6.03555556 14.232,5.97155556 13.4373333,5.97155556 L13.4373333,5.97155556 C10.9751111,5.97155556 8.76977778,6.49688889 6.82044444,7.54844444 L6.82044444,7.54844444 C4.87022222,8.6 3.352,10.0364444 2.26133333,11.8568889 L2.26133333,11.8568889 C1.17155556,13.6791111 0.627555556,15.7306667 0.627555556,18.0124444 L0.627555556,18.0124444 C0.627555556,19.9111111 1.07466667,21.5777778 1.97333333,23.0142222 L1.97333333,23.0142222 C2.87022222,24.4506667 4.14044444,25.56 5.78133333,26.3422222 L5.78133333,26.3422222 C7.42311111,27.1244444 9.33333333,27.5155556 11.5146667,27.5155556 L11.5146667,27.5155556 C13.9493333,27.5155556 16.1431111,26.9902222 18.0924444,25.9377778 L18.0924444,25.9377778 C20.0408889,24.8862222 21.5608889,23.4435556 22.6515556,21.6097778 L22.6515556,21.6097778 C23.7413333,19.776 24.2862222,17.7182222 24.2862222,15.4355556 L24.2862222,15.4355556 C24.2862222,13.4346667 23.7857778,11.7164444 22.7857778,10.2791111 L22.7857778,10.2791111 C24.0168889,9.79288889 24.9848889,9.02933333 25.6906667,7.99111111 L25.6906667,7.99111111 C26.3955556,6.952 26.7484444,5.68888889 26.7484444,4.20088889 L26.7484444,4.20088889 C26.7484444,2.63822222 26.2995556,1.27822222 25.4026667,0.123555556 L25.4026667,0.123555556 L21.2088889,1.66222222 Z M9.09066667,20.5715556 C8.39733333,19.8657778 8.05155556,18.8977778 8.05155556,17.6666667 L8.05155556,17.6666667 C8.05155556,15.9226667 8.51288889,14.512 9.43644444,13.4346667 L9.43644444,13.4346667 C10.3591111,12.3582222 11.552,11.8186667 13.0142222,11.8186667 L13.0142222,11.8186667 C14.2444444,11.8186667 15.2062222,12.1786667 15.8995556,12.896 L15.8995556,12.896 C16.592,13.6151111 16.9386667,14.5893333 16.9386667,15.8195556 L16.9386667,15.8195556 C16.9386667,17.5386667 16.4764444,18.936 15.5528889,20.0133333 L15.5528889,20.0133333 C14.6302222,21.0897778 13.4373333,21.6293333 11.976,21.6293333 L11.976,21.6293333 C10.744,21.6293333 9.78222222,21.2773333 9.09066667,20.5715556 L9.09066667,20.5715556 Z M7.12888889,30.496 C6.46044444,31.1244444 6.128,31.9004444 6.128,32.824 L6.128,32.824 C6.128,33.6186667 6.39022222,34.272 6.91644444,34.7857778 L6.91644444,34.7857778 C7.44177778,35.2986667 8.11555556,35.5555556 8.936,35.5555556 L8.936,35.5555556 C9.91022222,35.5555556 10.712,35.2542222 11.3404444,34.6515556 L11.3404444,34.6515556 C11.9688889,34.048 12.2835556,33.2337778 12.2835556,32.208 L12.2835556,32.208 C12.2835556,31.44 12.0142222,30.8044444 11.4764444,30.304 L11.4764444,30.304 C10.9368889,29.8044444 10.2693333,29.5537778 9.47555556,29.5537778 L9.47555556,29.5537778 C8.57688889,29.5537778 7.79466667,29.8675556 7.12888889,30.496 L7.12888889,30.496 Z" id="Fill-7" fill="url(#linearGradient-9)" mask="url(#mask-8)"></path>
                    </g>
                    <g id="Group-16" transform="translate(76.444444, 0.599200)">
                        <path d="M13.2362667,16.4935111 L13.2362667,16.4935111 C19.8611556,16.4935111 24.8309333,22.5521778 23.5358222,29.0490667 L23.4531556,29.4624 C22.4744889,34.3744 18.1624889,37.9112889 13.1536,37.9112889 L0.351822222,37.9112889 L2.93671111,24.9424 C3.91626667,20.0304 8.22737778,16.4935111 13.2362667,16.4935111" id="Fill-10" fill="#FDAD33"></path>
                        <path d="M14.2561778,0.289955556 L14.2561778,0.289955556 C18.3495111,0.289955556 21.4224,4.03395556 20.6215111,8.04906667 L20.5708444,8.30417778 C19.9655111,11.3397333 17.3006222,13.5255111 14.2046222,13.5255111 C10.1112889,13.5255111 7.04017778,9.78151111 7.84017778,5.7664 L7.89084444,5.51128889 C8.49706667,2.47573333 11.1610667,0.289955556 14.2561778,0.289955556" id="Fill-12" fill="#FDAD33"></path>
                        <path d="M27.5696,16.4935111 L27.5696,16.4935111 C34.1944889,16.4935111 39.1642667,22.5521778 37.8691556,29.0490667 L37.7864889,29.4624 C36.8078222,34.3744 32.4958222,37.9112889 27.4869333,37.9112889 L14.6851556,37.9112889 L17.2700444,24.9424 C18.2496,20.0304 22.5607111,16.4935111 27.5696,16.4935111" id="Fill-14" fill="#FD6E24"></path>
                    </g>
                </g>
            </g>
        </g>
    </g>
</svg>